[
  {
    "id": 1,
    "article": "N-567893",
    "url": "products/images/Nokia_3310.jpeg",
    "name": "Nokia 3310",
    "color": "Чорний",
    "price": 2000
  },

  {
    "id": 2,
    "article": "M-337896",
    "url": "products/images/Motorola_E398.jpg",
    "name": "Motorola E398",
    "color": "Чорний",
    "price": 3000
  },

  {
    "id": 3,
    "article": "N-339008",
    "url": "products/images/Nokia_N70.jpg",
    "name": "Nokia N70",
    "color": "Срібний",
    "price": 2500
  },

  {
    "id": 4,
    "article": "SE-876390",
    "url": "products/images/Sony_Ericsson_W810.jpg",
    "name": "Sony Ericsson W810",
    "color": "Чорний",
    "price": 2900
  },

  {
    "id": 5,
    "article": "M-132322",
    "url": "products/images/Motorola_SLVR_L7.jpg",
    "name": "Motorola SLVR L7",
    "color": "Чорний",
    "price": 2500
  },

  {
    "id": 6,
    "article": "N-729845",
    "url": "products/images/Nokia_N90.jpg",
    "name": "Nokia N90",
    "color": "Срібний",
    "price": 3500
  },

  {
    "id": 7,
    "article": "SE-589402",
    "url": "products/images/Sony_Ericsson_K800.png",
    "name": "Sony Ericsson K800",
    "color": "Чорний",
    "price": 2700
  },

  {
    "id": 8,
    "article": "N-550228",
    "url": "products/images/Nokia_1100.jpg",
    "name": "Nokia 1100",
    "color": "Чорний",
    "price": 2200
  },

  {
    "id": 9,
    "article": "Si-459042",
    "url": "products/images/Siemens_ME45.jpg",
    "name": "Siemens ME45",
    "color": "Чорний",
    "price": 1800
  },

  {
    "id": 10,
    "article": "S-667399",
    "url": "products/images/Samsung_C100.jpeg",
    "name": "Samsung C100",
    "color": "Срібний",
    "price": 2300
  },

  {
    "id": 11,
    "article": "I-100018",
    "url": "products/images/Apple_iPhone.png",
    "name": "Apple iPhone",
    "color": "Срібний",
    "price": 100500
  },

  {
    "id": 12,
    "article": "Si-497046",
    "url": "products/images/Siemens_M65.jpg",
    "name": "Siemens M65",
    "color": "Сірий",
    "price": 3200
  }
]
